Place,Name,Sex,BirthDate,Age,Equipment,Division,BodyweightKg,WeightClassKg,Squat1Kg,Squat2Kg,Squat3Kg,Best3SquatKg,Bench1Kg,Bench2Kg,Bench3Kg,Best3BenchKg,Deadlift1Kg,Deadlift2Kg,Deadlift3Kg,Best3DeadliftKg,TotalKg,Event
1,Kaitleene Viray,F,,,Raw,FR-Jr,48.2,52,80,87.5,-95,87.5,42.5,47.5,50,50,110,115,-120,115,252.5,SBD
1,Melica Fabroa,F,,,Raw,FR-Jr,56,57,112.5,117.5,122.5,122.5,50,55,-60,55,127.5,137.5,150,150,327.5,SBD
2,Ella Feeney,F,,,Raw,FR-Jr,54.2,57,75,80,-85,80,42.5,47.5,50,50,107.5,117.5,125,125,255,SBD
1,Sarah Alzagiar-Nguyen,F,,,Raw,FR-Jr,62.5,63,100,107.5,115,115,50,55,60,60,120,127.5,135,135,310,SBD
2,Aurora Percival,F,,,Raw,FR-Jr,62.6,63,65,72.5,77.5,77.5,30,37.5,42.5,42.5,77.5,85,90,90,210,SBD
1,Samantha Fahey,F,,,Raw,FR-Jr,68.9,69,105,-115,115,115,47.5,52.5,-57.5,52.5,105,115,120,120,287.5,SBD
2,Zara Thomas,F,,,Raw,FR-Jr,67.2,69,90,95,-100,95,45,47.5,50,50,105,112.5,120,120,265,SBD
1,Faith Alvis,F,,,Raw,FR-Jr,74.6,76,122.5,127.5,-137.5,127.5,67.5,75,-77.5,75,142.5,152.5,-162.5,152.5,355,SBD
1,Uraiwan Chao,F,,,Raw,FR-M1,51.2,52,90,-95,95,95,45,47.5,50,50,105,110,120,120,265,SBD
1,Maria Petridis,F,,,Raw,FR-M1,74.9,76,90,-100,-107.5,90,-47.5,-52.5,52.5,52.5,130,142.5,-150,142.5,285,SBD
1,Amanda Cairns-Cowan,F,,,Raw,FR-M1,98.9,84+,120,127.5,132.5,132.5,60,65,70,70,130,142.5,152.5,152.5,355,SBD
1,Kathy Waddell,F,,,Raw,FR-M2,82.3,84,60,-70,-70,60,40,-45,47.5,47.5,105,115,120,120,227.5,SBD
1,Lee-Anne Dwarte,F,,,Single-ply,F-M2,47.9,52,60,65,70,70,40,45,50,50,100,110,120,120,240,SBD
1,Jeannette Gevers,F,,,Single-ply,F-M3,58,63,120,127.5,140,140,70,75,-80,75,120,125,-130,125,340,SBD
1,Celine Bonita,F,,,Raw,FR-O,56.7,57,62.5,67.5,-72.5,67.5,35,37.5,-40,37.5,105,112.5,120,120,225,SBD
1,Patricia Manuel,F,,,Raw,FR-O,60.9,63,120,130,140,140,55,60,65,65,145,152.5,162.5,162.5,367.5,SBD
2,Ashleigh Cumins,F,,,Raw,FR-O,62.1,63,100,110,-120,110,57.5,60,65,65,120,130,140,140,315,SBD
1,Renee Coleman,F,,,Raw,FR-O,67.3,69,-110,110,120,120,70,75,-80,75,140,150,160,160,355,SBD
2,Tran Yvonne Nguyen,F,,,Raw,FR-O,68.4,69,100,107.5,112.5,112.5,60,65,70,70,130,140,152.5,152.5,335,SBD
3,Jacinta Stokes,F,,,Raw,FR-O,68,69,92.5,-102.5,-102.5,92.5,55,-60,-60,55,120,125,-132.5,125,272.5,SBD
1,Leizlee Dajao,F,,,Raw,FR-O,74.4,76,115,122.5,130,130,60,65,70,70,125,135,145,145,345,SBD
1,Tayla Roberti,F,,,Raw,FR-O,79.4,84,107.5,117.5,127.5,127.5,52.5,60,70,70,140,160,170,170,367.5,SBD
2,Cammilla White,F,,,Raw,FR-O,84,84,120,127.5,135,135,72.5,77.5,80,80,110,120,130,130,345,SBD
1,Ebony Puru,F,,,Raw,FR-O,93.9,84+,115,125,130,130,67.5,72.5,75,75,152.5,162.5,170,170,375,SBD
1,Shekinah Felipe,F,,,Raw,FR-SJ,55.4,57,65,70,75,75,37.5,40,42.5,42.5,90,97.5,-102.5,97.5,215,SBD
1,Patrick Whymark,M,,,Single-ply,M-M3,102.8,105,200,210,220,220,150,160,-165,160,200,220,230,230,610,SBD
1,Max Bristow,M,,,Single-ply,M-M3,69.4,74,110,120,125,125,65,70,72.5,72.5,165,180,187.5,187.5,385,SBD
1,Dong-Wook Suh,M,,,Raw,MR-Jr,63.2,66,122.5,130,137.5,137.5,65,72.5,75,75,170,180,-190,180,392.5,SBD
1,Matthew Armstrong,M,,,Raw,MR-Jr,73.4,74,170,185,-195,185,100,105,-110,105,215,230,-242.5,230,520,SBD
1,Levi Hall,M,,,Raw,MR-Jr,81.2,83,180,190,200,200,100,-110,-110,100,-210,-220,220,220,520,SBD
2,Tajveer Bains,M,,,Raw,MR-Jr,76.7,83,120,132.5,150,150,77.5,82.5,87.5,87.5,140,142.5,-172.5,142.5,380,SBD
1,Anthony Badra,M,,,Raw,MR-Jr,85.9,93,157.5,165,172.5,172.5,107.5,115,117.5,117.5,175,190,200,200,490,SBD
1,Ethan Mcmaster,M,,,Raw,MR-Jr,103.3,105,95,105,112.5,112.5,52.5,-60,-60,52.5,115,127.5,137.5,137.5,302.5,SBD
1,Benjamin Parraguez,M,,,Raw,MR-Jr,137.8,120+,250,270,290,290,180,190,195,195,280,300,-307.5,300,785,SBD
2,Khalil Ronquillo,M,,,Raw,MR-Jr,139.3,120+,152.5,162.5,175,175,100,107.5,115,115,185,200,210,210,500,SBD
1,Joel Hudson,M,,,Raw,MR-M1,89.2,93,75,,,75,45,,,45,75,,,75,195,SBD
1,Richard Hozjan,M,,,Raw,MR-M1,103.4,105,235,-247.5,,235,-185,185,-190,185,75,,,75,495,SBD
1,Dylan Smith #2,M,,,Raw,MR-M1,118.2,120,240,250,257.5,257.5,165,-170,-170,165,250,270,277.5,277.5,700,SBD
2,Adam Huard,M,,,Raw,MR-M1,117.5,120,180,200,210,210,135,145,152.5,152.5,215,,,215,577.5,SBD
1,Jaime Clarke,M,,,Raw,MR-M1,64.1,66,,,,,105,110,-112.5,110,,,,,110,B
1,Leigh Creighton,M,,,Raw,Special Olympics,107.4,120,-70,70,-95,70,50,-57.5,-57.5,50,100,115,120,120,240,SBD
1,Luis Garzon,M,,,Raw,MR-M2,66.4,74,90,100,107.5,107.5,60,-75,75,75,70,-90,100,100,282.5,SBD
1,Rod Sutton,M,,,Raw,MR-M2,79.4,83,130,140,145,145,90,105,-115,105,150,160,,160,410,SBD
1,Tom Jamieson,M,,,Raw,MR-M2,82.1,83,,,,,90,100,-105,100,,,,,100,B
1,Alexander Asfaganov,M,,,Raw,MR-M2,89.6,93,,,,,90,100,110,110,,,,,110,B
1,Michael Quill,M,,,Raw,MR-M3,70.2,74,110,115,120,120,90,95,100,100,115,120,130,130,350,SBD
1,Miguel Yabut,M,,,Raw,MR-O,58.6,59,142.5,152.5,162.5,162.5,75,82.5,-87.5,82.5,175,185,192.5,192.5,437.5,SBD
2,Tyler Bull,M,,,Raw,MR-O,53.6,59,47.5,57.5,-62.5,57.5,27.5,-35,-35,27.5,80,90,102.5,102.5,187.5,SBD
1,Raymond Nguyen,M,,,Raw,MR-O,72.8,74,190,205,-215,205,125,130,135,135,210,230,245,245,585,SBD
2,Henry Kneebone,M,,,Raw,MR-O,71.6,74,165,-175,-175,165,100,105,110,110,200,-210,-210,200,475,SBD
3,Angelo Pill,M,,,Raw,MR-O,73.1,74,157.5,-160,160,160,100,105,107.5,107.5,185,192.5,200,200,467.5,SBD
4,Kushal Patel,M,,,Raw,MR-O,72.2,74,140,147.5,-152.5,147.5,90,95,-97.5,95,175,-190,-190,175,417.5,SBD
1,Carlos Lamayo,M,,,Raw,MR-O,81,83,200,210,-220,210,130,135,140,140,-230,-230,230,230,580,SBD
2,Ian Dizon,M,,,Raw,MR-O,80.7,83,-185,185,200,200,115,-120,-120,115,240,250,-260,250,565,SBD
3,Steven Walker,M,,,Raw,MR-O,80.6,83,120,130,140,140,90,95,100,100,150,160,165,165,405,SBD
1,Shaun Highfield,M,,,Raw,MR-O,103.2,105,210,225,-232.5,225,150,-160,-160,150,240,260,275,275,650,SBD
2,Jay Rovacsek,M,,,Raw,MR-O,103.2,105,180,200,,200,-135,135,150,150,245,265,-287.5,265,615,SBD
3,Raymond Owen,M,,,Raw,MR-O,97.4,105,112.5,132.5,142.5,142.5,100,107.5,112.5,112.5,220,230,242.5,242.5,497.5,SBD
1,Luke Cutler,M,,,Raw,MR-O,108.3,120,200,217.5,240,240,-140,140,-145,140,215,235,-250,235,615,SBD
2,AJ Rebulado,M,,,Raw,MR-O,116.9,120,210,220,227.5,227.5,102.5,107.5,115,115,205,215,217.5,217.5,560,SBD
1,Beau Morrison,M,,,Raw,MR-O,138.3,120+,,,,,130,140,145,145,,,,,145,B
1,Stephan Fiorillo,M,,,Raw,MR-SJ,61.7,66,112.5,125,132.5,132.5,75,82.5,87.5,87.5,-165,165,177.5,177.5,397.5,SBD
1,Hayden Brinkley,M,,,Raw,MR-SJ,72.6,74,155,170,185,185,105,110,115,115,215,230,-240,230,530,SBD
2,Alex Pianta,M,,,Raw,MR-SJ,67.8,74,105,112.5,122.5,122.5,70,80,85,85,145,155,165,165,372.5,SBD
1,Jimmy Nguyen,M,,,Raw,MR-SJ,82,83,-165,170,190,190,95,105,-110,105,215,230,-240,230,525,SBD
1,Charles Allom,M,,,Raw,MR-SJ,90.8,93,120,125,-130,125,70,72.5,75,75,150,160,165,165,365,SBD
1,Lucas Turrell,M,,,Raw,MR-SJ,115.6,120,185,200,-212.5,200,80,-85,90,90,210,230,-250,230,520,SBD
1,Harris Mcveigh,M,,,Raw,MR-SJ,136.5,120+,120,130,140,140,65,75,85,85,140,160,180,180,405,SBD
DQ,James King #1,M,,,Raw,MR-SJ,114,120,150,160,165,165,125,-140,140,140,-200,-200,-200,,,SBD
1,Jacques Hallam,M,,,Raw,MR-SJ,66.1,74,,,,,55,-57.5,57.5,57.5,,,,,57.5,B
