Place,Sex,WeightClassKg,BodyweightKg,Name,Team,Squat1Kg,Squat2Kg,Squat3Kg,Best3SquatKg,Bench1Kg,Bench2Kg,Bench3Kg,Best3BenchKg,Deadlift1Kg,Deadlift2Kg,Deadlift3Kg,Best3DeadliftKg,TotalKg,Division,Equipment,BirthYear,BirthDate,Event
1,F,69,67.05,Laura Faarinen,KemaKu,100,105,112.5,112.5,57.5,62.5,67.5,67.5,102.5,110,122.5,122.5,302.5,Open,Raw,2002,,SBD
1,M,74,71.65,Joonas Koivuniemi,KemaKu,160,165,170,170,-105,-105,105,105,190,200,210,210,485,Open,Raw,1991,,SBD
2,M,74,71.65,Henri Kyntäjä,AavKi,150,160,170,170,100,105,-110,105,180,192.5,-202.5,192.5,467.5,Open,Raw,1987,,SBD
1,M,83,82.95,Jari Kyntäjä,AavKi,160,180,190,190,120,130,-135,130,200,220,235,235,555,Open,Raw,1971,,SBD
1,M,93,87.80,Tomi Lumijärvi,OPT,180,200,210,210,130,140,145,145,200,220,230,230,585,Open,Raw,1993,,SBD
1,M,105,95.05,Hannu Hyrkäs,AavKi,190,200,210,210,160,165,-172.5,165,200,220,230,230,605,Open,Raw,1981,,SBD
1,M,120,107.65,Tomi Kurkela,KiimU,200,215,-220,215,140,147.5,150,150,205,225,235,235,600,Open,Raw,1975,,SBD
