Division,WeightClassKg,Place,Name,Team,BodyweightKg,Best3SquatKg,Best3BenchKg,Best3DeadliftKg,TotalKg,Equipment,Event,Sex,BirthDate
Boys,51.71,1,James Evetts,Brownwood,48.72,97.52,58.97,111.13,267.62,Single-ply,SBD,M,
Boys,51.71,2,Antonio Contreras,Fredericksburg,51.3,95.25,47.63,111.13,254.01,Single-ply,SBD,M,
Boys,51.71,3,Jonatan Martinez,Fredericksburg,50.08,92.99,58.97,95.25,247.21,Single-ply,SBD,M,
Boys,51.71,4,Acey Mask,San Saba,47.63,74.84,52.16,106.59,233.6,Single-ply,SBD,M,
Boys,51.71,5,Collin McManus,Lampasas,51.66,68.04,52.16,90.72,210.92,Single-ply,SBD,M,
Boys,51.71,6,Daniel McAnally,Lampasas,51.57,68.04,54.43,61.23,183.7,Single-ply,SBD,M,
Boys,55.79,1,Justin Hernandez,San Saba,55.75,113.4,61.23,129.27,303.91,Single-ply,SBD,M,
Boys,55.79,2,Kaleb Grabast,Brownwood,53.66,113.4,72.57,111.13,297.1,Single-ply,SBD,M,
Boys,59.87,1,Cooper McWilliams,Llano,59.56,142.88,90.72,142.88,376.48,Single-ply,SBD,M,
Boys,59.87,2,Wilson Hammond,Lampasas,58.79,136.08,88.45,131.54,356.07,Single-ply,SBD,M,
Boys,59.87,3,Parker Weinheimer,Lampasas,57.65,108.86,83.91,111.13,303.91,Single-ply,SBD,M,
Boys,59.87,4,Winton Lackey,San Saba,58.83,122.47,72.57,108.86,303.91,Single-ply,SBD,M,
Boys,67.13,1,Enrique Reyes,Marble Falls,60.15,188.24,99.79,190.51,478.54,Single-ply,SBD,M,
Boys,67.13,2,Kaeson Raub,Lampasas,67.04,165.56,122.47,170.1,458.13,Single-ply,SBD,M,
Boys,67.13,3,Luke Rizzo,Fredericksburg,65.5,151.95,111.13,192.78,455.86,Single-ply,SBD,M,
Boys,67.13,4,Jose Rodriguez #13,Burnet,63,161.03,83.91,183.7,428.64,Single-ply,SBD,M,
Boys,67.13,5,Adan Huron,San Saba,64.64,142.88,90.72,167.83,401.43,Single-ply,SBD,M,
Boys,67.13,6,Brayden Hill,Burnet,65.59,147.42,74.84,179.17,401.43,Single-ply,SBD,M,
Boys,67.13,7,Jasael Ruiz,Marble Falls,63.82,165.56,74.84,156.49,396.89,Single-ply,SBD,M,
Boys,67.13,8,Kole Becker,Marble Falls,62.41,127.01,81.65,147.42,356.07,Single-ply,SBD,M,
Boys,67.13,9,Brandon Morales,Marble Falls,66.68,129.27,65.77,142.88,337.93,Single-ply,SBD,M,
Boys,67.13,10,Garret Buster,Burnet,64.5,127.01,70.31,136.08,333.39,Single-ply,SBD,M,
Boys,67.13,11,Colton Bailey,Llano,64.77,120.2,72.57,133.81,326.59,Single-ply,SBD,M,
Boys,67.13,12,Wesley Whitaker,Llano,65.14,111.13,70.31,133.81,315.25,Single-ply,SBD,M,
Boys,67.13,13,Benjamin Beaudin,Meridian,66.27,92.99,43.09,113.4,249.48,Single-ply,SBD,M,
Boys,67.13,DQ,Taylor Tibbs,Llano,62.14,,,,,Single-ply,SBD,M,
Boys,67.13,DQ,Denton Machuga,Llano,66.22,99.79,,,,Single-ply,SBD,M,
Boys,67.13,DQ,Zachary Horton,Lampasas,63.23,117.93,,,,Single-ply,SBD,M,
Boys,74.84,1,Dominique Wooten,Lampasas,69.99,192.78,138.35,208.65,539.77,Single-ply,SBD,M,
Boys,74.84,2,Jj Bowling,Lampasas,73.53,161.03,120.2,183.7,464.93,Single-ply,SBD,M,
Boys,74.84,3,Dusty Miller,Llano,74.25,172.37,108.86,176.9,458.13,Single-ply,SBD,M,
Boys,74.84,4,Levi Rivera,Lampasas,74.71,174.63,102.06,154.22,430.91,Single-ply,SBD,M,
Boys,74.84,5,Brady Rygaard,Burnet,69.67,156.49,106.59,161.03,424.11,Single-ply,SBD,M,
Boys,74.84,6,Rylan Ross,Lampasas,69.58,149.69,102.06,154.22,405.97,Single-ply,SBD,M,
Boys,74.84,7,Everett Eidson,San Saba,67.72,154.22,99.79,147.42,401.43,Single-ply,SBD,M,
Boys,74.84,8,Ricky De La Torre,Llano,71.85,158.76,90.72,142.88,392.36,Single-ply,SBD,M,
Boys,74.84,9,Austin Pogue,Meridian,69.85,136.08,72.57,131.54,340.19,Single-ply,SBD,M,
Boys,74.84,10,Noah Alvizo,Meridian,68.17,120.2,68.04,129.27,317.51,Single-ply,SBD,M,
Boys,74.84,11,Logan Van Pelt,Llano,73.66,115.67,61.23,124.74,301.64,Single-ply,SBD,M,
Boys,74.84,12,Jaxon Fowler,Fredericksburg,67.9,77.11,54.43,117.93,249.48,Single-ply,SBD,M,
Boys,82.1,1,John Parra,Fredericksburg,79.7,192.78,117.93,226.8,537.51,Single-ply,SBD,M,
Boys,82.1,2,Xavier Lopez,Marble Falls,79.15,192.78,95.25,226.8,514.83,Single-ply,SBD,M,
Boys,82.1,3,Dailin Fagan,Lampasas,81.01,199.58,95.25,192.78,487.61,Single-ply,SBD,M,
Boys,82.1,4,Konnor Fryburger,Fredericksburg,77.66,176.9,115.67,188.24,480.81,Single-ply,SBD,M,
Boys,82.1,5,William O'Dell,Brownwood,76.93,179.17,129.27,170.1,478.54,Single-ply,SBD,M,
Boys,82.1,6,Miguel Hernandez,Llano,79.65,181.44,106.59,188.24,476.27,Single-ply,SBD,M,
Boys,82.1,7,Jack Vanaartsen,Burnet,79.11,176.9,122.47,174.63,474,Single-ply,SBD,M,
Boys,82.1,8,Gabriel Rodriguez,Fredericksburg,78.61,163.29,115.67,179.17,458.13,Single-ply,SBD,M,
Boys,82.1,9,Luke Hudgins,Burnet,81.51,161.03,104.33,188.24,453.59,Single-ply,SBD,M,
Boys,82.1,10,Noah Escandon,Marble Falls,81.6,201.85,108.86,142.88,453.59,Single-ply,SBD,M,
Boys,82.1,11,Jake Jetton,Brownwood,81.19,158.76,102.06,170.1,430.91,Single-ply,SBD,M,
Boys,82.1,12,Preston Isom,Lampasas,77.84,158.76,81.65,154.22,394.63,Single-ply,SBD,M,
Boys,82.1,13,River Smith,Llano,77.7,142.88,104.33,142.88,390.09,Single-ply,SBD,M,
Boys,82.1,14,Tyson Trim,Burnet,76.25,136.08,97.52,151.95,385.55,Single-ply,SBD,M,
Boys,82.1,15,Johnathan Ryder,Burnet,79.61,127.01,70.31,133.81,331.12,Single-ply,SBD,M,
Boys,82.1,16,Jonah Utton,Meridian,79.06,111.13,83.91,129.27,324.32,Single-ply,SBD,M,
Boys,82.1,DQ,Zuriel Herrera,San Saba,80.69,181.44,113.4,,,Single-ply,SBD,M,
Boys,89.81,1,Joe Maldonado,Marble Falls,85,308.44,149.69,242.67,700.8,Single-ply,SBD,M,
Boys,89.81,2,Westen Reid,Lampasas,84.69,283.5,149.69,265.35,698.53,Single-ply,SBD,M,
Boys,89.81,3,Youri Estrada,Fredericksburg,89.09,204.12,154.22,204.12,562.45,Single-ply,SBD,M,
Boys,89.81,4,Samuel DeLuna,Fredericksburg,88.59,238.14,124.74,195.04,557.92,Single-ply,SBD,M,
Boys,89.81,5,Chance Jones,Brownwood,87.54,208.65,138.35,201.85,548.85,Single-ply,SBD,M,
Boys,89.81,6,Aden Rascoe,Lampasas,89.31,206.38,133.81,201.85,542.04,Single-ply,SBD,M,
Boys,89.81,7,Reed Jerome,Lampasas,85.41,188.24,120.2,183.7,492.15,Single-ply,SBD,M,
Boys,89.81,8,Jose Solorzano-Aldava,Marble Falls,89.77,197.31,111.13,183.7,492.15,Single-ply,SBD,M,
Boys,89.81,9,Leonel Aranda,San Saba,86.73,170.1,102.06,181.44,453.59,Single-ply,SBD,M,
Boys,89.81,10,Weston Wolf,Brownwood,85.5,165.56,102.06,181.44,449.06,Single-ply,SBD,M,
Boys,89.81,11,Chris Robinson #8,Brownwood,85.05,167.83,113.4,158.76,439.98,Single-ply,SBD,M,
Boys,89.81,12,Donnie Smart,Lometa,87.09,158.76,86.18,183.7,428.64,Single-ply,SBD,M,
Boys,89.81,13,Jancsi Cuevas,San Saba,88.31,163.29,95.25,165.56,424.11,Single-ply,SBD,M,
Boys,89.81,14,Colt Walling,Lampasas,87.72,151.95,104.33,156.49,412.77,Single-ply,SBD,M,
Boys,89.81,15,Carson Fields,Lampasas,84.01,154.22,102.06,142.88,399.16,Single-ply,SBD,M,
Boys,99.79,1,Jacob Maldonado,Marble Falls,96.52,251.74,165.56,244.94,662.24,Single-ply,SBD,M,
Boys,99.79,2,Zaiden Lopez,Brownwood,96.62,210.92,138.35,206.38,555.65,Single-ply,SBD,M,
Boys,99.79,3,Davis Le,Brownwood,91.49,183.7,111.13,181.44,476.27,Single-ply,SBD,M,
Boys,99.79,4,Raider Moura,Lampasas,93.39,170.1,102.06,142.88,415.04,Single-ply,SBD,M,
Boys,99.79,5,Daniel Norton,Lampasas,95.03,145.15,92.99,165.56,403.7,Single-ply,SBD,M,
Boys,99.79,6,Frank Machuga,Llano,97.2,149.69,92.99,151.95,394.63,Single-ply,SBD,M,
Boys,99.79,7,Vann Minor,Meridian,91.85,147.42,68.04,163.29,378.75,Single-ply,SBD,M,
Boys,99.79,DQ,Hershel Hawkins,Marble Falls,92.53,174.63,,,,Single-ply,SBD,M,
Boys,109.77,1,Aj Luna,Lampasas,102.06,217.72,106.59,183.7,508.02,Single-ply,SBD,M,
Boys,124.74,1,Cristian Ramirez #2,San Saba,124.47,272.16,145.15,231.33,648.64,Single-ply,SBD,M,
Boys,124.74,2,Kaden Roberts,Marble Falls,119.02,195.04,115.67,185.97,496.68,Single-ply,SBD,M,
Boys,124.74,3,Quinten McCarty,Brownwood,124.33,183.7,111.13,174.63,469.47,Single-ply,SBD,M,
Boys,124.74,4,John Wyatt #2,Meridian,114.8,142.88,120.2,188.24,451.32,Single-ply,SBD,M,
Boys,124.74,5,Jamison Dodes,Fredericksburg,117.71,165.56,113.4,165.56,444.52,Single-ply,SBD,M,
Boys,124.74,6,Jesus Gonzalez,San Saba,115.35,158.76,117.93,158.76,435.45,Single-ply,SBD,M,
Boys,124.74,7,Brandon Westbrook,Burnet,116.03,149.69,102.06,163.29,415.04,Single-ply,SBD,M,
Boys,124.74,DQ,Branen Green,Llano,118.57,,,,,Single-ply,SBD,M,
Boys,139.71,1,Isaac Gray,Brownwood,126.05,217.72,136.08,215.46,569.26,Single-ply,SBD,M,
Boys,139.71,2,Ethan Landeros,San Saba,131,174.63,102.06,149.69,426.38,Single-ply,SBD,M,
Boys,139.71,3,Jacksyn Andrews,Fredericksburg,137.21,147.42,111.13,149.69,408.23,Single-ply,SBD,M,
Boys,139.71+,1,Damian Sanchez,Brownwood,144.61,197.31,136.08,172.37,505.76,Single-ply,SBD,M,
Boys,139.71+,2,Jeremiah Bales,Marble Falls,147.78,195.04,124.74,149.69,469.47,Single-ply,SBD,M,
