Place,Name,Sex,Event,Division,WeightClassKg,Equipment,BirthYear,Team,State,BodyweightKg,Squat1Kg,Squat2Kg,Squat3Kg,Best3SquatKg,Bench1Kg,Bench2Kg,Bench3Kg,Best3BenchKg,Deadlift1Kg,Deadlift2Kg,Deadlift3Kg,Best3DeadliftKg,TotalKg,Age,BirthDate
1,Collin Cacciatore,M,B,MR-Jr,100,Raw,2000,,NH,95.9,,,,,102.5,117.5,-127.5,117.5,,,,,117.5,,
1,Elizabeth Young,F,SBD,FR-Jr,60,Raw,2002,Stand Strong,ME,59.3,87.5,92.5,97.5,97.5,37.5,40,-42.5,40,90,97.5,-105,97.5,235,,
1,Hattie Dunton,F,SBD,FR-Jr,75,Raw,2003,Stand Strong,ME,69.4,105,115,120,120,-55,57.5,-62.5,57.5,127.5,137.5,147.5,147.5,325,,
1,Stephanie Lopez,F,SBD,FR-Jr,90,Raw,2002,,AZ,83.7,102.5,115,-122.5,115,62.5,70,72.5,72.5,125,130,135,135,322.5,,
1,Emma Downing,F,SBD,FR-Jr,67.5,Raw,2001,,ME,66.2,112.5,120,127.5,127.5,55,62.5,67.5,67.5,110,117.5,122.5,122.5,317.5,,
2,Mackenzie Connor,F,SBD,FR-Jr,67.5,Raw,2000,Stand Strong,ME,65.8,95,100,-105,100,45,50,-55,50,102.5,110,120,120,270,,
1,Danielle Shepard,F,SBD,FR-M1a,75,Raw,1979,,ME,75,102.5,-120,120,120,65,72.5,75,75,117.5,125,-132.5,125,320,,
1,Jada Wilner,F,SBD,FR-M1a,100+,Raw,1979,,ME,135,-137.5,-145,150,150,70,75,-77.5,75,140,147.5,155,155,380,,
1,LeeAnn Delcourt,F,SBD,FR-M1b,90,Raw,1975,Stand Strong,ME,85.6,130,135,-142.5,135,55,60,65,65,147.5,160,-175,160,360,,
1,Jami Woods,F,SBD,FR-M2a,100,Raw,1972,,MA,92.9,102.5,120,-132.5,120,67.5,-77.5,-77.5,67.5,-125,127.5,137.5,137.5,325,,
1,Macky Page,F,SBD,FR-O,75,Raw,1992,,ME,71.2,127.5,132.5,137.5,137.5,72.5,77.5,-80,77.5,142.5,150,155,155,370,,
2,Heather Benoit,F,SBD,FR-O,75,Raw,1984,Stand Strong,ME,72.9,102.5,112.5,117.5,117.5,57.5,62.5,-67.5,62.5,-132.5,137.5,147.5,147.5,327.5,,
3,Heather Jackson,F,SBD,FR-O,75,Raw,1989,,ME,70.6,95,100,105,105,65,70,-72.5,70,122.5,127.5,130,130,305,,
4,Jess Majors,F,SBD,FR-O,75,Raw,1993,,ME,68.6,-92.5,-95,95,95,52.5,55,57.5,57.5,95,100,107.5,107.5,260,,
1,LeeAnn Delcourt,F,SBD,FR-O,90,Raw,1975,Stand Strong,ME,85.6,130,135,-142.5,135,55,60,65,65,147.5,160,-175,160,360,,
2,Kassandra Lincoln,F,SBD,FR-O,90,Raw,1991,Stand Strong,ME,87.5,132.5,142.5,-147.5,142.5,57.5,62.5,-67.5,62.5,132.5,142.5,150,150,355,,
1,Madison Jackson,F,SBD,FR-O,100,Raw,1998,,ME,96.4,125,-150,-150,125,70,80,-85,80,130,150,160,160,365,,
2,Brittany Hebert,F,SBD,FR-O,100,Raw,1990,,NH,95.9,120,122.5,125,125,-75,75,-80,75,130,135,137.5,137.5,337.5,,
1,Alison Lane,F,SBD,FR-O,67.5,Raw,1991,,ME,64.6,60,65,-72.5,65,45,50,-55,50,102.5,110,117.5,117.5,232.5,,
1,Danielle LaMarca,F,SBD,FR-O,82.5,Raw,1991,,ME,77,120,130,137.5,137.5,65,70,75,75,122.5,135,142.5,142.5,355,,
2,Darcie Daoust,F,SBD,FR-O,82.5,Raw,1996,Stand Strong,ME,81.6,-140,142.5,-147.5,142.5,70,-75,-75,70,130,137.5,142.5,142.5,355,,
3,Betsy Dorr,F,SBD,FR-O,82.5,Raw,1991,Stand Strong,ME,80.6,135,142.5,-147.5,142.5,57.5,62.5,-67.5,62.5,135,-142.5,-142.5,135,340,,
1,Emma Mancine,F,SBD,FR-T1,60,Raw,2008,Stand Strong,ME,59.1,70,75,77.5,77.5,32.5,35,-37.5,35,87.5,95,100,100,212.5,,
1,Derek Lachance,M,SBD,MR-Jr,75,Raw,2001,Stand Strong,ME,74.9,110,117.5,127.5,127.5,60,67.5,-72.5,67.5,152.5,160,170,170,365,,
1,Michael McCullom,M,SBD,MR-Jr,110,Raw,2000,,MA,108,247.5,265,275,275,147.5,155,-160,155,292.5,310,320,320,750,,
1,Theodore Wager,M,SBD,MR-Jr,125,Raw,2000,,VT,118.4,190,202.5,-205,202.5,147.5,157.5,-162.5,157.5,227.5,240,-250,240,600,,
1,Maxwell Dingle,M,SBD,MR-Jr,140,Raw,2001,,ME,133.5,202.5,217.5,-227.5,217.5,157.5,167.5,172.5,172.5,225,240,245,245,635,,
1,Edward Hebert,M,SBD,MR-Jr,140+,Raw,2002,Stand Strong,ME,147.8,-220,225,237.5,237.5,100,-110,120,120,237.5,255,262.5,262.5,620,,
1,Jessie Booths,M,SBD,MR-Jr,82.5,Raw,2002,,PA,77.6,125,-135,135,135,92.5,102.5,105,105,142.5,150,162.5,162.5,402.5,,
1,Gary Gravel,M,SBD,MR-M2a,75,Raw,1971,,ME,72.7,-110,-110,115,115,82.5,87.5,92.5,92.5,155,162.5,170,170,377.5,,
1,Arthur McAleer,M,SBD,MR-M2b,90,Raw,1968,,NH,83.6,167.5,177.5,185,185,125,132.5,137.5,137.5,192.5,205,207.5,207.5,530,,
1,Stephen Wright,M,SBD,MR-M2a,140+,Raw,1969,,ME,145.2,127.5,142.5,157.5,157.5,142.5,152.5,-160,152.5,237.5,247.5,260,260,570,,
1,Nigel Fung-A-Fat,M,SBD,MR-O,75,Raw,1992,Stand Strong,ME,73.5,160,170,182.5,182.5,97.5,105,110,110,192.5,205,220,220,512.5,,
2,Michael Leatham,M,SBD,MR-O,75,Raw,1991,,MA,74.7,175,-180,185,185,110,-120,-120,110,190,195,202.5,202.5,497.5,,
1,Anthony Steiner,M,SBD,MR-O,90,Raw,1992,,ME,84.9,187.5,197.5,-205,197.5,152.5,157.5,-162.5,157.5,235,245,-250,245,600,,
1,Ben Rivers,M,SBD,MR-O,100,Raw,1992,,ME,98.1,227.5,242.5,255,255,147.5,157.5,162.5,162.5,240,255,262.5,262.5,680,,
1,Kevin Moore,M,SBD,MR-O,67.5,Raw,1995,Stand Strong,ME,67.2,112.5,122.5,130,130,97.5,105,110,110,127.5,140,150,150,390,,
2,Mac Brucker,M,SBD,MR-O,67.5,Raw,1999,,ME,66.5,125,135,-145,135,80,-85,-85,80,140,150,160,160,375,,
1,Dawson Breton,M,SBD,MR-T1,75,Raw,2007,,ME,71.4,120,125,130,130,80,-87.5,90,90,137.5,160,170,170,390,,
1,Finnegan Brucker,M,SBD,MR-T2,75,Raw,2006,,ME,73.1,140,150,160,160,80,87.5,92.5,92.5,165,180,185,185,437.5,,
2,Noah Prescott,M,SBD,MR-T2,75,Raw,2005,Stand Strong,ME,73.8,140,-147.5,-150,140,70,75,-77.5,75,147.5,157.5,165,165,380,,
DQ,Luke Mckenney,M,SBD,MR-T2,90,Raw,2005,,ME,87.5,-182.5,-185,-185,,-142.5,,,,,,,,,,
1,David Wrigley,M,SBD,MR-T2,100,Raw,2006,Stand Strong,ME,96.3,167.5,175,-182.5,175,85,90,-95,90,-177.5,182.5,192.5,192.5,457.5,,
1,Anthony Benoit,M,SBD,MR-T2,67.5,Raw,2007,,ME,63.8,115,130,-132.5,130,75,85,-87.5,85,160,175,180,180,395,,
1,Cayden Green,M,SBD,MR-T3,90,Raw,2003,,ME,88.8,182.5,197.5,207.5,207.5,117.5,127.5,130,130,202.5,215,227.5,227.5,565,,
1,Kevin Grover,M,SBD,MR-T3,82.5,Raw,2004,,ME,77.9,150,160,172.5,172.5,125,137.5,145,145,190,202.5,-215,202.5,520,,
2,John Knapp,M,SBD,MR-T3,82.5,Raw,2004,Stand Strong,ME,81.5,167.5,177.5,192.5,192.5,87.5,95,-102.5,95,190,200,210,210,497.5,,
3,Abdullah Ali,M,SBD,MR-T3,82.5,Raw,2004,,ME,78.1,172.5,185,-187.5,185,102.5,-105,-110,102.5,-180,192.5,205,205,492.5,,
