Place,WeightClassKg,Name,BirthDate,Equipment,Team,BodyweightKg,Squat1Kg,Squat2Kg,Squat3Kg,Best3SquatKg,Bench1Kg,Bench2Kg,Bench3Kg,Best3BenchKg,Deadlift1Kg,Deadlift2Kg,Deadlift3Kg,Best3DeadliftKg,TotalKg,Division,Sex,Event
1,69,Silje Meek,,Raw,Kristiansund KK,64.60,75,80,85,85.0,47.5,50,52.5,52.5,100,110,115,115.0,252.5,Open,F,SBD
1,120+,Magnus Horgen,,Raw,Bergen SK,133.90,160,170,180,180.0,125,130,-135,130.0,190,200,210,210.0,520,Open,M,SBD
1,84+,Øystein Bruland,,Raw,Førde IL,93.20,130,142.5,150,150.0,80,85,90,90.0,145,152.5,157.5,157.5,397.5,Masters 50-59,F,SBD
1,120,Ketil Vevle,,Raw,Bergen SK,109.90,,,,,140,150,155,155.0,,,,,155,Masters 50-59,M,B
1,105,Robert Øren,,Single-ply,Bergen SK,94.50,115,-125,130,130.0,110,115,120,120.0,140,150,160,160.0,410,Masters +70,M,SBD
